nid,section
60599,Homelessness Programs and Resources
60601,Homelessness Programs and Resources
60603,Homelessness Programs and Resources
60605,Homelessness Programs and Resources
60607,Homelessness Programs and Resources
60609,Homelessness Programs and Resources
60611,Homelessness Programs and Resources
60613,Homelessness Programs and Resources
60615,Homelessness Programs and Resources
60617,Homelessness Programs and Resources
60619,Homelessness Programs and Resources
60621,Homelessness Programs and Resources
60623,Homelessness Programs and Resources
60625,Homelessness Programs and Resources
60629,Homelessness Programs and Resources
60631,Homelessness Programs and Resources
60633,Homelessness Programs and Resources
60637,Homelessness Programs and Resources
60639,Homelessness Programs and Resources
60641,Homelessness Programs and Resources
60643,Homelessness Programs and Resources
60645,Homelessness Programs and Resources
60647,Homelessness Programs and Resources
60649,Homelessness Programs and Resources
60651,Homelessness Programs and Resources
60653,Homelessness Programs and Resources
60655,Homelessness Programs and Resources
60657,Homelessness Programs and Resources
60659,Homelessness Programs and Resources
60661,Homelessness Programs and Resources
60663,Homelessness Programs and Resources
60665,Homelessness Programs and Resources
60667,Homelessness Programs and Resources
60669,Homelessness Programs and Resources
60671,Homelessness Programs and Resources
60673,Homelessness Programs and Resources
60675,Homelessness Programs and Resources
60677,Homelessness Programs and Resources
60679,Homelessness Programs and Resources
60681,Homelessness Programs and Resources
60683,Homelessness Programs and Resources
60685,Homelessness Programs and Resources
60691,Homelessness Programs and Resources
60693,Homelessness Programs and Resources
60699,Homelessness Programs and Resources
60701,Homelessness Programs and Resources
60707,Homelessness Programs and Resources
60713,Homelessness Programs and Resources
60715,Homelessness Programs and Resources
60721,Homelessness Programs and Resources
60723,Homelessness Programs and Resources
60725,Homelessness Programs and Resources
60729,Homelessness Programs and Resources
60731,Homelessness Programs and Resources
60733,Homelessness Programs and Resources
60735,Homelessness Programs and Resources
60737,Homelessness Programs and Resources
60739,Homelessness Programs and Resources
60741,Homelessness Programs and Resources
60743,Homelessness Programs and Resources
60745,Homelessness Programs and Resources
60747,Homelessness Programs and Resources
60749,Homelessness Programs and Resources
60751,Homelessness Programs and Resources
60753,Homelessness Programs and Resources
60757,Homelessness Programs and Resources
60759,Homelessness Programs and Resources
60761,Homelessness Programs and Resources
60765,Homelessness Programs and Resources
60767,Homelessness Programs and Resources
60769,Homelessness Programs and Resources
60771,Homelessness Programs and Resources
60773,Homelessness Programs and Resources
60777,Homelessness Programs and Resources
60779,Homelessness Programs and Resources
60783,Homelessness Programs and Resources
60785,Homelessness Programs and Resources
60787,Homelessness Programs and Resources
60789,Homelessness Programs and Resources
60793,Homelessness Programs and Resources
60795,Homelessness Programs and Resources
60797,Homelessness Programs and Resources
60801,Homelessness Programs and Resources
60803,Homelessness Programs and Resources
60805,Homelessness Programs and Resources
60807,Homelessness Programs and Resources
60809,Homelessness Programs and Resources
60811,Homelessness Programs and Resources
60815,Homelessness Programs and Resources
60817,Homelessness Programs and Resources
60819,Homelessness Programs and Resources
60821,Homelessness Programs and Resources
60823,Homelessness Programs and Resources
60825,Homelessness Programs and Resources
60827,Homelessness Programs and Resources
60829,Homelessness Programs and Resources
60831,Homelessness Programs and Resources
60833,Homelessness Programs and Resources
60835,Homelessness Programs and Resources
60837,Homelessness Programs and Resources
60839,Homelessness Programs and Resources
60841,Homelessness Programs and Resources
60843,Homelessness Programs and Resources
60845,Homelessness Programs and Resources
60847,Homelessness Programs and Resources
60849,Homelessness Programs and Resources
60851,Homelessness Programs and Resources
60853,Homelessness Programs and Resources
60855,Minority Fellowship Program (MFP)
60859,Homelessness Programs and Resources
60863,Minority Fellowship Program (MFP)
60865,Homelessness Programs and Resources
60867,Homelessness Programs and Resources
60869,Homelessness Programs and Resources
60871,Homelessness Programs and Resources
60873,Homelessness Programs and Resources
60875,Homelessness Programs and Resources
60877,Homelessness Programs and Resources
60879,Homelessness Programs and Resources
60881,Homelessness Programs and Resources
60883,Homelessness Programs and Resources
60885,Homelessness Programs and Resources
60889,Homelessness Programs and Resources
60893,Homelessness Programs and Resources
60895,Homelessness Programs and Resources
60897,Homelessness Programs and Resources
60901,Homelessness Programs and Resources
60903,Homelessness Programs and Resources
60905,Homelessness Programs and Resources
60907,Homelessness Programs and Resources
60909,Homelessness Programs and Resources
60913,Homelessness Programs and Resources
60915,Homelessness Programs and Resources
60917,Homelessness Programs and Resources
60919,Homelessness Programs and Resources
60921,Homelessness Programs and Resources
60923,Homelessness Programs and Resources
60925,Homelessness Programs and Resources
60927,Homelessness Programs and Resources
60931,Homelessness Programs and Resources
60933,Homelessness Programs and Resources
60935,Homelessness Programs and Resources
60939,Homelessness Programs and Resources
60941,Minority Fellowship Program (MFP)
60943,Homelessness Programs and Resources
60945,Homelessness Programs and Resources
60947,Homelessness Programs and Resources
60949,Homelessness Programs and Resources
60951,Homelessness Programs and Resources
60953,Homelessness Programs and Resources
60955,Homelessness Programs and Resources
60957,Homelessness Programs and Resources
60959,Homelessness Programs and Resources
60961,Homelessness Programs and Resources
60963,Homelessness Programs and Resources
60965,Homelessness Programs and Resources
60967,Homelessness Programs and Resources
60969,Homelessness Programs and Resources
60971,Homelessness Programs and Resources
60973,Homelessness Programs and Resources
60975,Homelessness Programs and Resources
60977,Homelessness Programs and Resources
60979,Minority Fellowship Program (MFP)
60981,Homelessness Programs and Resources
60983,Homelessness Programs and Resources
60987,Homelessness Programs and Resources
60989,Homelessness Programs and Resources
60991,Homelessness Programs and Resources
60993,Homelessness Programs and Resources
60995,Homelessness Programs and Resources
60997,Homelessness Programs and Resources
61003,Homelessness Programs and Resources
61007,Homelessness Programs and Resources
61009,Homelessness Programs and Resources
61011,Homelessness Programs and Resources
61013,Homelessness Programs and Resources
61015,Homelessness Programs and Resources
61017,Homelessness Programs and Resources
61019,Homelessness Programs and Resources
61021,Homelessness Programs and Resources
61025,Homelessness Programs and Resources
61033,Homelessness Programs and Resources
61035,Homelessness Programs and Resources
61037,Homelessness Programs and Resources
61039,Homelessness Programs and Resources
61041,Homelessness Programs and Resources
61043,Homelessness Programs and Resources
61045,Homelessness Programs and Resources
61047,Homelessness Programs and Resources
61049,Homelessness Programs and Resources
61051,Homelessness Programs and Resources
61053,Homelessness Programs and Resources
61055,Homelessness Programs and Resources
61057,Homelessness Programs and Resources
61059,Homelessness Programs and Resources
61063,Homelessness Programs and Resources
61065,Homelessness Programs and Resources
61067,Homelessness Programs and Resources
61069,Homelessness Programs and Resources
61071,Homelessness Programs and Resources
61073,Homelessness Programs and Resources
61075,Homelessness Programs and Resources
61077,Homelessness Programs and Resources
61079,Homelessness Programs and Resources
61081,Homelessness Programs and Resources
61083,Homelessness Programs and Resources
61085,Homelessness Programs and Resources
61087,Homelessness Programs and Resources
61089,Homelessness Programs and Resources
61091,Homelessness Programs and Resources
61093,Homelessness Programs and Resources
61095,Homelessness Programs and Resources
61097,Homelessness Programs and Resources
61099,Homelessness Programs and Resources
61101,Homelessness Programs and Resources
61103,Homelessness Programs and Resources
61105,Homelessness Programs and Resources
61107,Homelessness Programs and Resources
61113,Homelessness Programs and Resources
61115,Homelessness Programs and Resources
61117,Homelessness Programs and Resources
61119,Homelessness Programs and Resources
61121,Homelessness Programs and Resources
61123,Homelessness Programs and Resources
61125,Homelessness Programs and Resources
61127,Homelessness Programs and Resources
61129,Homelessness Programs and Resources
61131,Homelessness Programs and Resources
61133,Homelessness Programs and Resources
61135,Homelessness Programs and Resources
61139,Homelessness Programs and Resources
61141,Homelessness Programs and Resources
61143,Homelessness Programs and Resources
61145,Homelessness Programs and Resources
61149,Homelessness Programs and Resources
61151,Homelessness Programs and Resources
61153,Homelessness Programs and Resources
61155,Homelessness Programs and Resources
61161,Homelessness Programs and Resources
61163,Homelessness Programs and Resources
61165,Homelessness Programs and Resources
61167,Homelessness Programs and Resources
61169,Homelessness Programs and Resources
61173,Homelessness Programs and Resources
61175,Homelessness Programs and Resources
61179,Homelessness Programs and Resources
61181,Homelessness Programs and Resources
61183,Homelessness Programs and Resources
61185,Homelessness Programs and Resources
61187,Homelessness Programs and Resources
61189,Homelessness Programs and Resources
61191,Homelessness Programs and Resources
61193,Homelessness Programs and Resources
61195,Homelessness Programs and Resources
61197,Homelessness Programs and Resources
61199,Homelessness Programs and Resources
61201,Homelessness Programs and Resources
61203,Homelessness Programs and Resources
61205,Homelessness Programs and Resources
61209,Minority Fellowship Program (MFP)
61211,Homelessness Programs and Resources
61213,Homelessness Programs and Resources
61217,Homelessness Programs and Resources
61221,Homelessness Programs and Resources
61225,Homelessness Programs and Resources
61227,Homelessness Programs and Resources
61229,Homelessness Programs and Resources
61231,Homelessness Programs and Resources
61233,Homelessness Programs and Resources
61235,Homelessness Programs and Resources
61237,Homelessness Programs and Resources
61239,Homelessness Programs and Resources
61241,Homelessness Programs and Resources
61243,Homelessness Programs and Resources
61245,Homelessness Programs and Resources
61251,Minority Fellowship Program (MFP)
61253,Homelessness Programs and Resources
61255,Homelessness Programs and Resources
61257,Homelessness Programs and Resources
61259,Homelessness Programs and Resources
61265,Homelessness Programs and Resources
61271,Homelessness Programs and Resources
61273,Homelessness Programs and Resources
61275,Homelessness Programs and Resources
61277,Homelessness Programs and Resources
61279,Homelessness Programs and Resources
61281,Homelessness Programs and Resources
61283,Homelessness Programs and Resources
61285,Homelessness Programs and Resources
61287,Homelessness Programs and Resources
61289,Homelessness Programs and Resources
61291,Homelessness Programs and Resources
61293,Homelessness Programs and Resources
61295,Homelessness Programs and Resources
61297,Homelessness Programs and Resources
61299,Homelessness Programs and Resources
61301,Homelessness Programs and Resources
61303,Homelessness Programs and Resources
61305,Homelessness Programs and Resources
61307,Homelessness Programs and Resources
61309,Minority Fellowship Program (MFP)
61313,Homelessness Programs and Resources
61315,Homelessness Programs and Resources
61317,Homelessness Programs and Resources
61319,Homelessness Programs and Resources
61321,Homelessness Programs and Resources
61323,Homelessness Programs and Resources
61325,Homelessness Programs and Resources
61327,Homelessness Programs and Resources
61331,Homelessness Programs and Resources
61333,Homelessness Programs and Resources
61335,Homelessness Programs and Resources
61337,Homelessness Programs and Resources
61341,Homelessness Programs and Resources
61345,Homelessness Programs and Resources
61347,Homelessness Programs and Resources
61351,Homelessness Programs and Resources
61353,Homelessness Programs and Resources
61357,Homelessness Programs and Resources
61363,Homelessness Programs and Resources
61367,Homelessness Programs and Resources
61369,Homelessness Programs and Resources
61371,Homelessness Programs and Resources
61373,Homelessness Programs and Resources
61375,Homelessness Programs and Resources
61377,Homelessness Programs and Resources
61379,Homelessness Programs and Resources
61381,Homelessness Programs and Resources
61385,Homelessness Programs and Resources
61387,Homelessness Programs and Resources
61389,Homelessness Programs and Resources
61391,Homelessness Programs and Resources
61393,Homelessness Programs and Resources
61395,Homelessness Programs and Resources
61399,Homelessness Programs and Resources
61401,Homelessness Programs and Resources
61403,Homelessness Programs and Resources
61405,Homelessness Programs and Resources
61407,Homelessness Programs and Resources
61409,Homelessness Programs and Resources
61411,Homelessness Programs and Resources
61413,Homelessness Programs and Resources
61415,Homelessness Programs and Resources
61417,Homelessness Programs and Resources
61419,Homelessness Programs and Resources
61421,Homelessness Programs and Resources
61423,Homelessness Programs and Resources
61425,Homelessness Programs and Resources
61427,Homelessness Programs and Resources
61431,Homelessness Programs and Resources
61433,Homelessness Programs and Resources
61435,Homelessness Programs and Resources
61437,Homelessness Programs and Resources
61439,Homelessness Programs and Resources
61441,Minority Fellowship Program (MFP)
61445,Homelessness Programs and Resources
61447,Homelessness Programs and Resources
61449,Homelessness Programs and Resources
61451,Homelessness Programs and Resources
61455,Homelessness Programs and Resources
61457,Homelessness Programs and Resources
61459,Homelessness Programs and Resources
61461,Homelessness Programs and Resources
61463,Homelessness Programs and Resources
61465,Homelessness Programs and Resources
61467,Homelessness Programs and Resources
61469,Homelessness Programs and Resources
61471,Homelessness Programs and Resources
61473,Homelessness Programs and Resources
61475,Homelessness Programs and Resources
61477,Homelessness Programs and Resources
61479,Homelessness Programs and Resources
61481,Homelessness Programs and Resources
61483,Homelessness Programs and Resources
61485,Homelessness Programs and Resources
61487,Homelessness Programs and Resources
61489,Homelessness Programs and Resources
61491,Homelessness Programs and Resources
61493,Homelessness Programs and Resources
61497,Homelessness Programs and Resources
61499,Homelessness Programs and Resources
61501,Homelessness Programs and Resources
61503,Homelessness Programs and Resources
61505,Homelessness Programs and Resources
61509,Homelessness Programs and Resources
61511,Homelessness Programs and Resources
61515,Homelessness Programs and Resources
61519,Homelessness Programs and Resources
61521,Homelessness Programs and Resources
61523,Homelessness Programs and Resources
61529,Homelessness Programs and Resources
61531,Homelessness Programs and Resources
61533,Homelessness Programs and Resources
61535,Homelessness Programs and Resources
61539,Homelessness Programs and Resources
61541,Homelessness Programs and Resources
61545,Homelessness Programs and Resources
61547,Homelessness Programs and Resources
61549,Homelessness Programs and Resources
61551,Homelessness Programs and Resources
61553,Homelessness Programs and Resources
61557,Homelessness Programs and Resources
61559,Homelessness Programs and Resources
61563,Homelessness Programs and Resources
61569,Homelessness Programs and Resources
61571,Homelessness Programs and Resources
61573,Homelessness Programs and Resources
61577,Homelessness Programs and Resources
61597,Homelessness Programs and Resources
61599,Homelessness Programs and Resources
61601,Homelessness Programs and Resources
61603,Homelessness Programs and Resources
61605,Homelessness Programs and Resources
61607,Homelessness Programs and Resources
61609,Homelessness Programs and Resources
61611,Homelessness Programs and Resources
61613,Homelessness Programs and Resources
61615,Homelessness Programs and Resources
61617,Homelessness Programs and Resources
61619,Homelessness Programs and Resources
61621,Homelessness Programs and Resources
61623,Homelessness Programs and Resources
61625,Homelessness Programs and Resources
61627,Homelessness Programs and Resources
61629,Homelessness Programs and Resources
61631,Homelessness Programs and Resources
61633,Homelessness Programs and Resources
61635,Homelessness Programs and Resources
61637,Homelessness Programs and Resources
61639,Homelessness Programs and Resources
61641,Homelessness Programs and Resources
61643,Homelessness Programs and Resources
61645,Homelessness Programs and Resources
61647,Homelessness Programs and Resources
61649,Homelessness Programs and Resources
61651,Homelessness Programs and Resources
61653,Homelessness Programs and Resources
61655,Homelessness Programs and Resources
61657,Homelessness Programs and Resources
61659,Homelessness Programs and Resources
61661,Homelessness Programs and Resources
61663,Homelessness Programs and Resources
61665,Homelessness Programs and Resources
61667,Homelessness Programs and Resources
61669,Homelessness Programs and Resources
61671,Homelessness Programs and Resources
61673,Homelessness Programs and Resources
61675,Homelessness Programs and Resources
61677,Homelessness Programs and Resources
61679,Homelessness Programs and Resources
61681,Homelessness Programs and Resources
61683,Homelessness Programs and Resources
61685,Homelessness Programs and Resources
61687,Homelessness Programs and Resources
62081,Homelessness Programs and Resources
62083,Homelessness Programs and Resources
62165,Homelessness Programs and Resources
62451,Homelessness Programs and Resources
62453,Homelessness Programs and Resources
62455,Homelessness Programs and Resources
62457,Homelessness Programs and Resources
62459,Homelessness Programs and Resources
62461,Homelessness Programs and Resources
62463,Homelessness Programs and Resources
62465,Homelessness Programs and Resources
62467,Homelessness Programs and Resources
62469,Homelessness Programs and Resources
62471,Homelessness Programs and Resources
62473,Homelessness Programs and Resources
62475,Homelessness Programs and Resources
62477,Homelessness Programs and Resources
62479,Homelessness Programs and Resources
62481,Homelessness Programs and Resources
62483,Homelessness Programs and Resources
62485,Homelessness Programs and Resources
62487,Homelessness Programs and Resources
62489,Homelessness Programs and Resources
62491,Homelessness Programs and Resources
62495,Homelessness Programs and Resources
62497,Homelessness Programs and Resources
62499,Homelessness Programs and Resources
62501,Homelessness Programs and Resources
62503,Homelessness Programs and Resources
62505,Homelessness Programs and Resources
62507,Homelessness Programs and Resources
62509,Homelessness Programs and Resources
62511,Homelessness Programs and Resources
62513,Homelessness Programs and Resources
62515,Homelessness Programs and Resources
62517,Homelessness Programs and Resources
62519,Homelessness Programs and Resources
62521,Homelessness Programs and Resources
62523,Homelessness Programs and Resources
62525,Homelessness Programs and Resources
62527,Homelessness Programs and Resources
62529,Homelessness Programs and Resources
62531,Homelessness Programs and Resources
62533,Homelessness Programs and Resources
62535,Homelessness Programs and Resources
62537,Homelessness Programs and Resources
62539,Homelessness Programs and Resources
62871,Homelessness Programs and Resources
62873,Homelessness Programs and Resources
62875,Homelessness Programs and Resources
62877,Homelessness Programs and Resources
62879,Homelessness Programs and Resources
62881,Homelessness Programs and Resources
62883,Homelessness Programs and Resources
62885,Homelessness Programs and Resources
78787,Homelessness Programs and Resources
78789,Homelessness Programs and Resources
86033,Homelessness Programs and Resources
86035,Homelessness Programs and Resources
86037,Homelessness Programs and Resources
86039,Homelessness Programs and Resources
86041,Homelessness Programs and Resources
86043,Homelessness Programs and Resources
86081,Homelessness Programs and Resources
86083,Homelessness Programs and Resources
86085,Homelessness Programs and Resources
86107,Homelessness Programs and Resources
86109,Homelessness Programs and Resources
86111,Homelessness Programs and Resources
86113,Homelessness Programs and Resources
86115,Homelessness Programs and Resources
86117,Homelessness Programs and Resources
86121,Homelessness Programs and Resources
86127,Homelessness Programs and Resources
86131,Homelessness Programs and Resources
86133,Homelessness Programs and Resources
86135,Homelessness Programs and Resources
86137,Homelessness Programs and Resources
86139,Minority Fellowship Program (MFP)
86141,Homelessness Programs and Resources
86143,Homelessness Programs and Resources
86145,Homelessness Programs and Resources
86147,Homelessness Programs and Resources
86149,Homelessness Programs and Resources
86151,Homelessness Programs and Resources
86153,Homelessness Programs and Resources
86155,Homelessness Programs and Resources
86157,Homelessness Programs and Resources
87477,Homelessness Programs and Resources
87479,Homelessness Programs and Resources
